@startuml
Actor "Developer\nContrato\nOpenAPI" as APIDeveloperContract #purple

entity "Contrato\nOpenAPI" as  OpenAPIDoc #purple

Actor "Developer\nAPI REST" as DeveloperAPIRest #green

control "Validación Contrato" as OpenAPIValidatorContractSystem #blue

boundary "API REST" as APIRestSystem #green


 

boundary "Mocking de API" as APIMockingSystem #lightsalmon




Actor "Developer\nConsumidor\nde API Rest" as DeveloperAPIConsumer #hotpink

boundary "App Consumidora\n de API REST" as ConsumerAPIRestSystem #hotpink

group 1) Diseño contrato OpenAPI 

APIDeveloperContract -[#purple]-> OpenAPIDoc : <b>Desarrolla
end
...
== <font color=red> IMPLEMENTACIÓN EN PARALELO==

group API Rest
	group Implementación
	DeveloperAPIRest  -[#green]->  OpenAPIDoc : Consume <b>Contrato OpenAPI</b>

	DeveloperAPIRest-[#green]->APIRestSystem : <b>Implementa\ncontrato
	DeveloperAPIRest-[#green]->OpenAPIDoc : Cumple contrato

	DeveloperAPIRest -[#green]-> APIMockingSystem : Levanta para test\n<b>Contrato OpenAPI</b>
	APIMockingSystem -[#green]-> DeveloperAPIRest : <b>Devuelve URL\n con API Mockeada para test internos

	end

	group Validación
	DeveloperAPIRest  -[#blue]-> OpenAPIValidatorContractSystem : Ejecuta test\nsobre contrato
	OpenAPIValidatorContractSystem -[#blue]-> OpenAPIDoc : Compara
	OpenAPIValidatorContractSystem -[#blue]-> APIRestSystem : Compara
	else <font color=green> OK Implementación
		group OK en implementacíon OpenAPI
		OpenAPIValidatorContractSystem -[#green]-> DeveloperAPIRest : API Rest\nvalida
		DeveloperAPIRest -[#green]->APIRestSystem  : <b> Release
		end

	else <font color=red> Error implementación
		group Error en implementacíon OpenAPI
		OpenAPIValidatorContractSystem -[#red]-x DeveloperAPIRest : Falta\npath
		OpenAPIValidatorContractSystem -[#red]-x DeveloperAPIRest : Falta\nmethod
		OpenAPIValidatorContractSystem -[#red]-x DeveloperAPIRest : Falta\nerror en response
		OpenAPIValidatorContractSystem -[#red]-x DeveloperAPIRest : Errors:....
		end
	end
end
...
group Consumidor del API Rest
	group Implementación

	DeveloperAPIConsumer  -[#hotpink]->  OpenAPIDoc : Consume <b>Contrato OpenAPI</b>

	DeveloperAPIConsumer -[#hotpink]->  APIMockingSystem : Levanta\n<b>Contrato OpenAPI</b>  
	 
	APIMockingSystem -[#hotpink]->  DeveloperAPIConsumer : <b>Devuelve URL\n con API Mockeada

	DeveloperAPIConsumer -[#hotpink]->ConsumerAPIRestSystem : Implementa \nen su sistema\n el consumo del\nAPI Mockeada
	ConsumerAPIRestSystem -[#hotpink]-> APIMockingSystem : <b>Consume API Rest via URL\n generado por mocking via contrato
	end
	group Switch API Rest
		ConsumerAPIRestSystem -[#red]-x APIMockingSystem : Deja de Consumidor
		ConsumerAPIRestSystem -[#green]-> APIRestSystem : Consume\nAPI REST \n Implementado

	end
end
@enduml